{
  "items": [
    {
      "id": 1,
      "typeId": "FACEBOOK",
      "text": "facebook",
      "linkUrl": "http://facebook.com",
      "icon": "facebook"
    },
    {
      "id": 3,
      "typeId": "TELEGRAM",
      "text": "telegram",
      "linkUrl": "http://telegram.com",
      "icon": "telegram"
    },
    {
      "id": 102,
      "typeId": "WEB",
      "text": "web",
      "linkUrl": "http://web.com",
      "icon": "web"
    }
  ]
}